; by Kil		

#0		; lead
w160		; main volume 245
;$F0		;       [7654 3210]
$EF $97 $40 $40	; reverb 1001 0111 $97
$F1 $04 $03 $01	;
$F2 $22 $55 $55	;
$f5 $da $12 $c4 $16 $f6 $d9 $12 $2f
$DE $1B $0F $40 ; vibrato
$EA $22 	;
@0 t55 y8 v250	;
o4		;
h-1		;


#SPC
{
	#author "Kil"
	#comment "Carnival theme 2"
	#game "SMWCP2"
}

#samples
{
	#default
	#AMM
	#sky_and_dream
}

{c8 <g8 >c8 d+8 g8 a+8}
{g+4 g4 f4}
{d+4 f4 d+4}
{d2^4}

{d+8 <a+8 >d+8 g8 a+8 > c+8}
{c4 <a+4 g+4}
{g4 f4 d+4}
{d+8 d8 c8 d8 <a+4}

{>c8 d+8 d8 d+8 c4}
{<a+8 >d+8 d8 d+8 <a+8 >a+8}
{a+4 g+4 g4}
{f4^8 f8 d+8 d8}

{c8 d+8 d8 d+8 c4}
{<a+8 >d+8 d8 d+8 <a+4}
{a8 >d+8 d8 d+8 <a8 >c8}
{<g+8 t51 >c8 t46 d+8 t44 g8 t42 a+1^4} t55

{r2^4^2^4^2^4^2^4}

/ v250
{a+8 g8 d+8 g8 <a+4^16 r16}
{a+8 >c8 <a+8 a8 a+8}
{>g16r16 c16r16 f2}
{r8 <a+16r16 a16r16 a+16r16 g16r16 a+16r16}
{>g+8 f8 d8 f8 <a+8 >d8}
{a+8 g+8 f+8 f8 d+8 d8}
{f16r16 <g+16r16 >d+2}
{r8 <d8 f8 g8 a+8 >d8}

{f8 <a+8 >d+2}
{r8 d+8 d8 d+8 <a+8 >d+8}
{d8 <g8 >c2}
{r8 <f8 g8 a+8 >c8 <g8}
{g+8 d+8 g+8 >c8 f8 <g+8}
{>d+8 <g+8 >d8 <g+8 >c8 d8}
{d+2^4}
{d2^4}

{a+8 g8 d+8 g8 <a+4^16 r16}
{a+8 >c8 <a+8 a8 a+8}
{>g16r16 c16r16 f2}
{r8 <a+16r16 a16r16 a+16r16 g16r16 a+16r16}
{>g+8 f8 d8 f8 <a+8 >d8}
{a+8 g+24 a+24 g+24 f+8 f8 d+8 d8}
{f16r16 <g+16r16 >d+2}
{r8 <d8 f8 g8 a+8 >d8}

{f8 <a+8 >d+2}
{r8 d+8 d8 d+8 <a+8 >d+8}
{d8 <g8 >c2}
{r8 <e8 g8 a+8 >c8 <g8}
{g+8 f8 g+8 >c8 f16r16 c16r16}
{g2^4 d+1^4^8r8}


{c8 <g8 >c8 d+8 g8 a+8}
{g+4 g4 f4}
{d+4 f4 d+4}
{d2^4}

{d+8 <a+8 >d+8 g8 a+8 > c+8}
{c4 <a+4 g+4}
{g4 f4 d+4}
{d+8 d8 c8 d8 <a+4}

{>c8 d+8 d8 d+8 c4}
{<a+8 >d+8 d8 d+8 <a+8 >a+8}
{a+4 g+4 g4}
{f4^8 f8 d+8 d8}

{c8 d+8 d8 d+8 c4}
{<a+8 >d+8 d8 d+8 <a+4}
{a8 >d+8 d8 d+8 <a8 >c8}
{d+8 d8 d8 c8 c8 d8}
{d+1^1^1}
{v0 a1^1^1}



#1		; bass chord
$DE $1B $0F $40 ; vibrato
$EA $22 	;
@0 t55 y9 v250	;
o2		;
h-1		;

{c2^4 f2^4 g+2^4 a+2^4}
{d+2^4 g+2^4 a2^4 a+2^4}
{g+2^4 g2^4 f+2^4 f2^4}
{g+2^4 g2^4 f+2^4  f4 g4 g+1^4}

{d+2^4 e2^4 f2^4 a+2^4}
/
{d+2^4 e2^4 f2^4 <a+2^4}
{>a+2^4 d2^4 d+2^4 g2^4}

{>c2^4 <a+2^4 g+2^4 g2^4}
{f2^4 g+2^4 a+2^4 <a+2^4}

>
{d+2^4 e2^4 f2^4 <a+2^4}
{>a+2^4 d2^4 d+2^4 g2^4}
{>c2^4 <a+2^4 g+2^4 e2^4}
{f2^4 a+2^4 d+2^4 a+2^4}


{c2^4 f2^4 g+2^4 a+2^4}
{d+2^4 g+2^4 a2^4 a+2^4}
{g+2^4 g2^4 f+2^4 f2^4}
{g+2^4 g2^4 f+2^4 a+2^4}

{d+2^4 e2^4 f2^4 d2^4}
{d+2^4 e2^4 f2^4 a+2^4}


#4		; lead echo
$DE $1B $0F $40 ; vibrato
$EA $22 	;
@0 y13 v160	;
o4		;
h-1		;


{r16^32^64 c8 <g8 >c8 d+8 g8 a+8}
{g+4 g4 f4}
{d+4 f4 d+4}
{d2^4}

{d+8 <a+8 >d+8 g8 a+8 > c+8}
{c4 <a+4 g+4}
{g4 f4 d+4}
{d+8 d8 c8 d8 <a+4}

{>c8 d+8 d8 d+8 c4}
{<a+8 >d+8 d8 d+8 <a+8 >a+8}
{a+4 g+4 g4}
{f4^8 f8 d+8 d8}

{c8 d+8 d8 d+8 c4}
{<a+8 >d+8 d8 d+8 <a+4}
{a8 >d+8 d8 d+8 <a8 >c8}
{<g+8 t51 >c8 t46 d+8 t44 g8 t42 a+1^4} t55

{r2^4^2^4^2^4^2^8^64}

/ v160 r16^32
{a+8 g8 d+8 g8 <a+4^16 r16}
{a+8 >c8 <a+8 a8 a+8}
{>g16r16 c16r16 f2}
{r8 <a+16r16 a16r16 a+16r16 g16r16 a+16r16}
{>g+8 f8 d8 f8 <a+8 >d8}
{a+8 g+8 f+8 f8 d+8 d8}
{f16r16 <g+16r16 >d+2}
{r8 <d8 f8 g8 a+8 >d8}

{f8 <a+8 >d+2}
{r8 d+8 d8 d+8 <a+8 >d+8}
{d8 <g8 >c2}
{r8 <f8 g8 a+8 >c8 <g8}
{g+8 d+8 g+8 >c8 f8 <g+8}
{>d+8 <g+8 >d8 <g+8 >c8 d8}
{d+2^4}
{d2^4}

{a+8 g8 d+8 g8 <a+4^16 r16}
{a+8 >c8 <a+8 a8 a+8}
{>g16r16 c16r16 f2}
{r8 <a+16r16 a16r16 a+16r16 g16r16 a+16r16}
{>g+8 f8 d8 f8 <a+8 >d8}
{a+8 g+24 a+24 g+24 f+8 f8 d+8 d8}
{f16r16 <g+16r16 >d+2}
{r8 <d8 f8 g8 a+8 >d8}

{f8 <a+8 >d+2}
{r8 d+8 d8 d+8 <a+8 >d+8}
{d8 <g8 >c2}
{r8 <e8 g8 a+8 >c8 <g8}
{g+8 f8 g+8 >c8 f16r16 c16r16}
{g2^4 d+1^4^8r8}


{c8 <g8 >c8 d+8 g8 a+8}
{g+4 g4 f4}
{d+4 f4 d+4}
{d2^4}

{d+8 <a+8 >d+8 g8 a+8 > c+8}
{c4 <a+4 g+4}
{g4 f4 d+4}
{d+8 d8 c8 d8 <a+4}

{>c8 d+8 d8 d+8 c4}
{<a+8 >d+8 d8 d+8 <a+8 >a+8}
{a+4 g+4 g4}
{f4^8 f8 d+8 d8}

{c8 d+8 d8 d+8 c4}
{<a+8 >d+8 d8 d+8 <a+4}
{a8 >d+8 d8 d+8 <a8 >c8}
{d+8 d8 d8 c8 c8 d8}
{d+1^1^1}
{v0 a1^1^2^4^8^64}


#2		; harmony 1
$DE $1B $0F $40 ; vibrato
$EA $22 	;
@0 y10 v220	;
o3		;
h-1		;


{r1^1^1^1^1^1^1^1^1^1^1^1^1}
{r4 g8r8 g8r8}
{r4 g8r8 g8r8}
{r4 g+8r8 g+8r8}
{r4 a8r8 a8r8}

/
{r4 g8r8 g8r8}
{r4 g8r8 g8r8}
{r4 g+8r8 g+8r8}
{r4 f8r8 f8r8}

{r4 f8r8 f8r8}
{r4 a+8r8 a+8r8}
{r4 a+8r8 a+8r8}
{r4 c8 d8 f8 g8}

{g2^4 g2^4 d+2^4 d2^4}
{r4 d+8r8 d+8r8}
{r4 f8r8 f8r8}
{r4 f8r8 g8r8}
{g+2 g8 f8}

{r4 g8r8 g8r8}
{g2^8 r8}
{r4 g+8r8 g+8r8}
{f2^8 r8}

{r4 f8r8 f8r8}
{a+4 a+8 g+8 f+8 f8}
{r4 a+8r8 a+8r8}
{<a+4 >c8 d8 f8 g8}

{r4 g8r8 g8r8}
{g2^4}
{r4 d+8r8 d+8r8}
{c2^8 r8}

{r4 d+8r8 d+8r8}
{a+4 a4 g+4 g1^2}



{r4 d+8r8 d+8r8}
{g+2r4}
{r4 g8r8 g+8r8}
{f2^8r8}

{r4 d+8r8 d+8r8}
{>c2^8r8}
{r4 <a8r8 >c8r8}
{<a+4 g+4 f4}

{r4 d+8r8 d+8r8}
{r4 d+8r8 d+8r8}
{r4 d+8r8 g8r8}
{f2^8r8}

{r4 d+8r8 d+8r8}
{r4 d+8r8 d+8r8}
{r4 d+8r8 d+8r8}
{g+2^4}


{r4 g8r8 g8r8}
{r4 g8r8 g8r8}
{r4 g+8r8 g+8r8}
{r4 g+8r8 g+8r8}


{r4 g8r8 g8r8}
{r4 g8r8 g8r8}
{r4 g+8r8 g+8r8}
{r4 a8r8 a8r8}



#7		; harmony 2
$DE $1B $0F $40 ; vibrato
$EA $22 	;
@0 y8 v210	;
o2		;
h-1		;


{r1^1^1^1^1^1^1^1^1^1^1^1^1}
{r4 a+8r8 a+8r8}
{r4 b8r8 b8r8}
{r4 >c8r8 c8r8}
{r4 c8r8 c8r8}

/ o2
{r4 a+8r8 a+8r8}
{r4 b8r8 b8r8}
{r4 >c8r8 c8r8}
{r4 <a+8r8 a+8r8}

{r4 >d8r8 d8r8}
{r4 d8r8 d8r8}
{r4 d+8r8 d+8r8}
{r2^4}

{r2^4 r2^4 r2^4 r2^4}
{r4 <g+8r8 g+8r8}
{r4 >c8r8 c8r8}
{r4 d8r8 d8r8}
{<a+2^4}

{r4 a+8r8 a+8r8}
{b2^8 r8}
{r4 >c8r8 c8r8}
{<a+2^8 r8}

{r4 >d8r8 d8r8}
{d4 <a+2}
{r4 >d+8r8 d+8r8}
{d+2r4}

{r4 d+8r8 d+8r8}
{d+2^4}
{r4 c8r8 c8r8}
{<a+2^8 r8}

{r4 >c8r8 c8r8}
{f2^4 d+4c4 d4 d+2^4}


{r4 <g8r8 g8r8}
{>c2^8r8}
{r4 c8r8 c8r8}
{d2^8r8}

{r4 <g8r8 g8r8}
{>d+2^8r8}
{r4 d+8r8 d+8r8}
{d+4 d4 d4}

{r4 c8r8 c8r8}
{r4 c8r8 c8r8}
{r4 c8r8 d8r8}
{c2^8r8}

{r4 c8r8 c8r8}
{r4 c8r8 c8r8}
{r4 c8r8 c8r8}
{d+2^4}


{r4 <a+8r8 a+8r8}
{r4 b8r8 b8r8}
{r4 >c8r8 c8r8}
{r4 c8r8 c8r8}


{r4 <a+8r8 a+8r8}
{r4 b8r8 b8r8}
{r4 >c8r8 c8r8}
{r4 c8r8 c8r8}



#5		; percussion
@0 y9 v240	;
o4 q4f $DF	;
		;

{r1^1^1^1^1^1^1^1^1^1^1^1^1}


[{r4 @22c4 @22c4}]4

/
[{@21c4 @22c8 c8 c4 c4 c4 c4}]4

[{@21c4 @22c4 c4}]3
{@21c4 @22c4 c8 c8}
{@21c4 @22c8 c8 c4 c4 c4 c4}
{@21c4 @22c8 c8 c4 v130c32 v140c32 v150c32 v160c32 v165c32 v170c32 v175c32 v180c32 v190c32 v195c32 v200c32 v210c32 v215c32 v222c32 v230c32 v235c32 @29c4}

v230
[{@21c8 c8 @22c8 c8 @21c8 @22c8 @29c8 @22c16 c16 @21c8 @22c8 c8 @29c8 @21c8 c8 @22c8 c8 @21c8 @22c8 v255@29c4 v230 @22c8 @21c8 @22c8 c8}]2

[{@21c8 @22c8 c8 c8 c8 c8 @29c8 @22c8  @21c8 @22c8 c8 @21c8}]2
{@21c8 @22c8 c8 @21c8 @22c8 @21c8 @29c4  @21c8 c8 @29c8 @29c8 @21c8 @22c4 @21c4 c8 v255 @29c4^8 @29v180c8 @29v210c8 @29v245c8}


[{@21c8 c8 @22c8 c8 @21c8 @22c8 @29c8 @22c16 c16 @21c8 @22c8 c8 @29c8 @21c8 c8 @22c8 c8 @21c8 @22c8 v255@29c4 v230 @22c8 @21c8 @22c8 c8}]2
[{@21c8 @22c8 c8 c8 c8 c8 @29c8 @22c8  @21c8 @22c8 c8 @21c8}]2
{@21c8 @22c8 c8 @21c8 @22c8 @21c8 @29c8 @22c8  @21c8 c8 @29c8 @29c8 @21c8 @22c8 @21c8 c8 @29c8 @22c8  @29c8 @29c8 @29c8 @29c8 @21c8 @29c8}

[{@21c4 @22c4 c4 r4 c4 c4}]4



#3		; bass
@1 t55 y9 v230	;
o2		;
h-1		;

{r1^1^1^1^1^1^1^1^1^1^1^1}


{r1^1^1^1}
/
{r1^1^1^1^1^1^1^1^1^1^1^1}

{d+8 >d+8 <a+8 >d+8 <g8 a+8}
{>e4 <e4 r8 e8}
{f8 >c8 f8 e8 f8 <f8}
{a+2^8 f8}

{f8 >f8 d8 <a+8 f8 a+8}
{>d4 <d4 r8 d8}
{d+8 >d+8 < a+8 >d+8 <g8 a+8}
{g2^8 d+8}

{c8 a+8 >c8 <g8 c4}
{a+2^8 a+8}
{g+8 <g+8 >g+4 g+4}
{e4^8 <e8 >e8 <a+8}

{>f8 <f8 >c8 d+8 f8 c8}
{a+4 f4 <a+4}
{>d+8 d+8 r8 d+4 d+8}
{d+2^4}


{c8 c8 g8 c8 >c8 <g8}
{f8 f4 >f4 <f8}
{g+8 g+4 >f4 <g+8}
{a+8 >d8 <f8 a+8 d4}

{c8 c8 g8 c8 >c8 <g8}
{g+8 g+4 >g+4 <g+8}
{a8 a4 >a4 a8}
{d+8 <a+8 <a+8 >f8 a+8 f8}

{g+8 g+4 >d+4 <d+8}
{g8 g4 >d+4 <d8}
{f+8 c8 f+8 a+8 >c8 <f+8}
{>f4 c4 <f4}

{g+8 g+4 >d+4 <d+8}
{g8 g4 >d+4 <d8}
{f+8 c8 f+8 a+8 >c8 <f+8}
{a+8 <a+8 >f8 a+8 <a+8 >a+8}

{d+2^4 r2^4r2^4r2^4}{r1^1^1^4}



#6		; bass guitar layer
@8 t55 y9 v255	;
o2		;
h-1		;

{r1^1^1^1^1^1^1^1^1^1^1^1}


{r1^1^1^1}
/
{r1^1^1^1^1^1^1^1^1^1^1^1}

{d+8 >d+8 <a+8 >d+8 <g8 a+8}
{>e4 <e4 r8 e8}
{f8 >c8 f8 e8 f8 <f8}
{a+2^8 f8}

{f8 >f8 d8 <a+8 f8 a+8}
{>d4 <d4 r8 d8}
{d+8 >d+8 < a+8 >d+8 <g8 a+8}
{g2^8 d+8}

{c8 a+8 >c8 <g8 c4}
{a+2^8 a+8}
{g+8 <g+8 >g+4 g+4}
{e4^8 <e8 >e8 <a+8}

{>f8 <f8 >c8 d+8 f8 c8}
{a+4 f4 <a+4}
{>d+8 d+8 r8 d+4 d+8}
{d+2^4}


{c8 c8 g8 c8 >c8 <g8}
{f8 f4 >f4 <f8}
{g+8 g+4 >f4 <g+8}
{a+8 >d8 <f8 a+8 d4}

{c8 c8 g8 c8 >c8 <g8}
{g+8 g+4 >g+4 <g+8}
{a8 a4 >a4 a8}
{d+8 <a+8 <a+8 >f8 a+8 f8}

{g+8 g+4 >d+4 <d+8}
{g8 g4 >d+4 <d8}
{f+8 c8 f+8 a+8 >c8 <f+8}
{>f4 c4 <f4}

{g+8 g+4 >d+4 <d+8}
{g8 g4 >d+4 <d8}
{f+8 c8 f+8 a+8 >c8 <f+8}
{a+8 <a+8 >f8 a+8 <a+8 >a+8}

{d+2^4 r2^4r2^4r2^4}{r1^1^1^4}                

#amk=1
