#SPC
{
	#author "Camerin"
	#comment "Carnival map theme"
	#game "SMW Central Production 2"
}

#0 w160 t25
$F0

#0 @5 q7f v200 p40,40 y10 $ED $6A $88 $EE $22
d+8f8g8f8d+8f8g8f8
d+8f8f+8f8d+8f8f+8f8
d+8f8g8f8d+8f8g8a+8
d+8f8f+8f8d+8f8f+8f8
c+8d+8f8g+8c+8d+8f8g+8
c+8d+8e8g+8c+8d+8e8g+8
f+8d+8<b8>d+8f+8d+8<b8>d+8
g8d+8c+8d+8g8f8d+8g8
g+1
;
#1 @13 q7f v240 y10 p40,30 $ED $68 $88 $EE $55
o4[g+1]4
[f+1]2
b1
d+1
g+1
;
#2 @13 q7f v240 p40,30 y10 $ED $68 $88 $EE $22
o4[c1
<b1]2
a+1
a1
>d+1
<g1
>c2<b2
;
#3 @13 q7f v240 p40,30 y10 $ED $68 $88 $EE $55
o4[d+1]4
[c+1]2
f+1
<a+1
>d+1
;
#5 @11 q7f v230 y10 p40,40 $ED $5A $88 $EE $33
o4r16d+32d+32d+32r32d+32r32f32r32d+32r32f32r32d+32r16^32d+32d+32d+32r32d+32r32f32r32d+32r32f32r32d+32r16^32
d+32d+32d+32r32d+32r32f32r32d+32r32f32r32d+32r16^32d+32d+32d+32r32d+32r32f+32r32d+32r32f+32r32d+32r16^32
d+32d+32d+32r32d+32r32f32r32d+32r32f32r32d+32r16^32d+32d+32d+32r32d+32r32f32r32d+32r32f32r32d+32r16^32
d+32d+32d+32r32d+32r32f32r32d+32r32f32r32d+32r16^32d+32d+32d+32r32d+32r32f+32r32d+32r32f+32r32d+32r16^32
c+32c+32c+32r32c+32r32d+32r32c+32r32d+32r32c+32r16^32c+32c+32c+32r32c+32r32d+32r32c+32r32d+32r32c+32r16^32
c+32c+32c+32r32c+32r32d+32r32c+32r32d+32r32e32r16^32c+32c+32c+32r32c+32r32d+32r32e32r32d+32r32c+32r8^32
f+8g+8f+8r8f+8d+16^32<b16^32>f+16
g4^8d+8c+4d+4
d+8f8g8f8d+8f8g8f8
;
#6 @11 q7f v230 y10 p40,40 $ED $5A $88 $EE $66
o4r16c32c32c32r32c32r32c32r32c32r32c32r32c32r16^32c32c32c32r32c32r32c32r32c32r32c32r32c32r16^32
<b32b32b32r32b32r32b32r32b32r32b32r32b32r16^32b32b32b32r32b32r32b32r32b32r32b32r32b32r16^32
>c32c32c32r32c32r32c32r32c32r32c32r32c32r16^32c32c32c32r32c32r32c32r32c32r32c32r32c32r16^32
<b32b32b32r32b32r32b32r32b32r32b32r32b32r16^32b32b32b32r32b32r32b32r32b32r32b32r32b32r16^32
a+32a+32a+32r32a+32r32a+32r32a+32r32a+32r32a+32r16^32a+32a+32a+32r32a+32r32a+32r32a+32r32a+32r32a+32r16^32
a32a32a32r32a32r32a32r32a32r32a32r32a32r16^32a32a32a32r32a32r32a32r32a32r32a32r32a32r8^32
>d+4^8r8d+8<b16^32f+16^32>d+16
c+4^8<a+8g4d+4
>c2<b2
;
#4 @8 q7f v250 y10 $EE $22
o2[g+4>c8<d+8g+4>c8<d+8
g+4b8d+8g+4b8d+8]2
f+4a+8c+8f+4a+8c+8
f+4a8c+8f+4a8c+8
b4>d+8<f+8b4>d+8<f+8
g4a+8d+8g4a+8d+8
g+4>c4<g+4b4
;

#7  q7f v235 y10
o4[ @23c16<@23g32@23g32>@23c16<@23g32@23g32>@23c8@23c8]18                

#amk=1
