;An SMW Central Production - "Fire Level" - SNN            ;
;;;;;;;;;;;;;;;;;;;;;;;;;;;;;;;;;;;;;;;;;;;;;;;;;;;;;;;;;;;;

#SPC
{
	#author "S.N.N."
	#comment "Fire theme 1"
	#game "SMW Central Production 2"
}

#samples
{
	#default
	#AMM
	#sky_and_dream
	"CCymbal.brr"
	"CChoir.brr"
}


#0

w160 t70
$EF $FF $30 $30 $F1 $03 $44 $01
o2
;;;;;;
;BASS;
;;;;;;

[o2 y10
@8 $ED $7F $ED v240 c8  c16c16c8r4c8d+8<a+8]3
> c=120 @14 o4 <a+8>c8c+8

@8 $ED $7F $ED o2 v240
(1)[c8c8g8g8c8c8g8g8<a+8a+8>f8f8<g8g8>d+8d+8c8c8c8d+8d+8d+8f8f8g8g8g+8f8f8f8g+8g+8g8<g8>g8<g4>f=72
c8c8f8f8a+8a+8f8f8g8<g8>g8<g4>f4^8c8c8f8f8a+8a+8]1   >c+8c+8
<

(1)    f8f8
[r1]8 r4

;;;;;;;;;;;;;;;;
;ORCHESTRA HITS;
;;;;;;;;;;;;;;;;
@15 v200
o4
(2)[c8< c=120 c1^4> d+=72 d+=72 c8]1 r1^8
(2) r=168
@8 v240
[o2c8c16c16c8r4c8d+8f8r8f8c8r8d+8<a+8r4]2

;;;;;;;;;;;;;;;;;;;;;;;;;;;;;;;;;;;;;;;;;;;;;;;;;;;;;;;;;;;;

#1

o3
y11
[@22f+2]4
@21c2@21c2@21c2@21c8@29d8@29d8@29d8

[@21c2 @23 a+4 @23 a+4 @21 c4^8 @21 c8 @23 a+8 @21 c=72]8

[v170 > @15 ("CCymbal.brr", $04) $ED $7F $E6 c+4 v200 @26b8@26b8@26b2
@21c4@26b4@26b4@26b4
@21c4@26b8@26b8@26b2
@21c4@26b4@26b4@26b4 <]4

> v170 @15 ("CCymbal.brr", $04) $ED $7F $E6 c+4 r4< [@21c2]3
[@22f+2]3 r2

;;;;;;;;;;;;;;;;;;;;;;;;;;;;;;;;;;;;;;;;;;;;;;;;;;;;;;;;;;;;

#2

r1^1
o3
y10 v200
[@22f+4]8
(20)[@22f+8@22f+16@22f+16@29d8@22f+8 @26b8 @22f+8 @26b8 @22f+8@22f+8@22f+16@22f+16@29d8@22f+8 @26b8 @22f+8@29d8]1 @22 f+8
(20) @22 f+8
(20) @22 f+8
(20) @29 d16 @29 d16
(20) @22 f+8
(20) @22 f+8
(20) @22 f+8
(20) @22 f+8
[@22f+4@29d4@22f+4@22f+4@22f+4@22f+4@22f+4@22f+4]3

@22f+4@29d4@22f+4@22f+4@22f+4 v90 @29d8 v120 @29d8 v140 @29d8 v170 @29d8 v190 @29d8 v220 @29d8 v200
[@22f+4@29d4@22f+4@29d4]7
@22f+4@29d4@22f+4@29d8@29d8
[@22f+2]4
[r1]10

;;;;;;;;;;;;;;;;;;;;;;;;;;;;;;;;;;;;;;;;;;;;;;;;;;;;;;;;;;;;

#3

[r1]4
;;;;;;;;;;;;;
;HARPSICHORD;
;;;;;;;;;;;;;
@14 v242 o3
(30)[c1<a+=72 g=72 g+4 c=72 d+=72 f=42 f32g4g+8 f=42 c32f4g+8g1>c4f4<a+4>f4<g1c4f4<a+4>]1   f16^32r32r32>c+8
(30)   f4
(31)[v230 c8c8 v190 c4 v150 c8c8 v110 c4
v230 c8c8 v190 c4 v150 c8c8 v110 c4
v230 d+8d+8 v190 d+4 v150 d+8d+8 v110 d+4]1
v230 d8d8 v190 d4 v150 d8d8 v110 d4
(31)
v230 f8f8 v190 f4 v150 f8f8 v110 f4

@1 $ED $7F $ED v210 p20,66
o4 y11
(32)[c16>c8^16c8<f8g8f4^8d+8f8d+8c4^8<a+2]1
>c8d+8f8d+16f16c4
<a+8g8a+8>c2^8
(32)
g8f8g4d+4
a+4^8g4^8f4
c8c8c8f1^8
d+2
c1^1
y10
[r1]10

;;;;;;;;;;;;;;;;;;;;;;;;;;;;;;;;;;;;;;;;;;;;;;;;;;;;;;;;;;;;

#4

[r1]4
;;;;;;;;;;;;;
;HARPSICHORD;
;;;;;;;;;;;;;
@14 v242
o4
(40)[c1<a+4^8g4^8g+4c4^8d+4^8f8^16^32f32g4g+8f8^16^32c32f4g+8g1>c4f4<a+4>f4<g1c4f4<a+4>]1 f8  >c+8
(40) f4
(41)[v230 c4 v190 c4 v150 c4 v110 c4]2
(42)[v230 d+4 v190 d+4 v150 d+4 v110 d+4]1
v230 d4 v190 d4 v150 d4 v110 d4
(41)2
(42)
v230 f4 v190 f4 v150 f4 v110 f4
[r1]5 r2

v170 y10
("CChoir.brr", $06) $ED $78 $E6 p20,66
f+2
a1
f+2a4b8a8
b1^1
[r1]10

;;;;;;;;;;;;;;;;;;;;;;;;;;;;;;;;;;;;;;;;;;;;;;;;;;;;;;;;;;;;

#5

[r1]4

;;;;;;;;;;;;;;;;
;ORCHESTRA HITS;
;;;;;;;;;;;;;;;;

(50)[v220 @15 o3c1r1 o2c1r1]1

;;;;;;;;;;;;;
;HARPSICHORD;
;;;;;;;;;;;;;

(51)[v193 @14 $ED $5F $ED o5g16d16d16d16g16d16d16g8^16d8<a+8>c8<g4>c4<a+4>c4<g1]1

;;;;;;;;;;;;;;;;
;ORCHESTRA HITS;
;;;;;;;;;;;;;;;;

r1
(50)

;;;;;;;;;;;;;;;
;HARPSICHORD 1;
;;;;;;;;;;;;;;;

(51)
r1 <

(52)[c1c1d+1]1 d1
(52) f1
>
@14 v202
[c4^8c2^8d+4^8d+2^4^8c4d+8c4^8f4^8g2^8]2
v180 y9
>c16<a+16>c16<g16>c16<a+16g16a+16>c16<a+16>c16<g16>c16<a+16g16f16
>c16<a+16>c16<g16>c16<a+16g16f16c16f16g16f16a+16g16>c16<a+16
[r1]10

;;;;;;;;;;;;;;;;;;;;;;;;;;;;;;;;;;;;;;;;;;;;;;;;;;;;;;;;;;;;

#6

[r1]10
@14 v193
(60)[o4 g16d16d16d16g16d16d16g8^16d8<a+8>c8
<g4>c4<a+4>c8c+8]1
[r1]6
(60)
[r1]8

;;;;;;;;;;;;;;;
;HARPSICHORD 2;
;;;;;;;;;;;;;;;
o3 @14 v222
[c4^8c2^8d+4^8d+2^4^8c4d+8c4^8f4^8g2^8]2
r1^1
o4 $ED $5F $00 @0 y11
[v200 c16<a+16> v180 c16<g16>]4
v190 c16<a+16> v170 c16<g16>
v140 c16<a+16> v120 c16<g16>
v110 c16<a+16> v90 c16<g16>
v70 c16<a+16> v50 c16<g16>
[r1]10

;;;;;;;;;;;;;;;;;;;;;;;;;;;;;;;;;;;;;;;;;;;;;;;;;;;;;;;;;;;;

#7

;;;;;;;
;CHOIR;
;;;;;;;
[r1]7 r2^4 v170 y11
("CChoir.brr", $06) $ED $77 $E6 p20,66
;tuned;
(70)[a8g8f+1d2e2f+1^1]1
[r1]3 r2^4
(70)
v190 $ED $7A $E6
(71)[r4 y10 <b4> y9 f+4 y8 e4 y9 c+4 y10 d4< y11 b4 y12 a4> y11 d4 y10 c+4< y9 a4 y8 b4> y9 d4]1 y10 c+4< y11 b4 y12 a4>
(71)   y10 e4 y11 d4 y12f+4

y10

;;;;;;;;;;;;;;;
;HARPSICHORD 3;
;;;;;;;;;;;;;;;
o2
@14 v222
[c4^8c2^8d+4^8d+2^4^8c4d+8c4^8f4^8g2^8]2
[r1]10                

#amk=1
