#amk 2

#spc
{
	#author "Koji Kondo"
	#title "Here We Go! (Beta Mix)"
	#game "Super Mario World"
}

#samples
{
	#default
}

; #option smwvtable

;===============================;
; Channel #0			;
;===============================;

#0 t54 w192

@1 v255 y10 $EE $0A o6 q6D
d4 < a+8. f16 e16 r16 f16 g16^4 
$EE $00

/

@5 v255 y10  o5 q6B
[c12. c24 r24 a24]2 
d12. d24 r24 a+24 
c+12. c+24 r24 a+24 
*2
d8 c+4.

o5 

[[ (1)[c12. q6C c24 r24 q6B a24]2
(2)[d12. q6C d24 r24 q6B a+24]1 
d12. q6C d24 r24 q6B b24 

(1)1
c12. q6C c24 r24 q6B g+24 
c12. q6C c24 r24 q6B g24 
c12. q6C c24 r24 q6B a+24

(1)2
(2)1
d12. q6C d24 r24 q6B b24 
(2)1
c12. q6C c24 r24 q6B a+24 
(1)2 ]]2

(2)2
(1)1
c24 r24 a24 q6C c24 q6B r24 a24 
< (3)[b12. q6C b24 r24 q6B > g+24 
< b12. q6C b24 r24 q6B > g+24 
< a+12. q6C a+24 r24 q6B > g24]
c24 r24 g24 q6C c24 r24 q6B g24 

(2)2
(1)1
c24 r24 a24 q6C c24 q6B r24 a24 
(3)1
c24 r24 c24 q6C g24 q6B c24 g24 

(1)8
c4. r2^8

(1)4

[q49 o4 d12. f12. d24 r24 f24 f+12 g24 a24 r24 g+24 g12 f+24 a24 r24 d24 d+12 e24 f24 r12 d8 f24 r24 g24 g+12 a24 g+24 r24 a24 f12 d24 c24 r24 f24 < a12 a+24
$DE $23 $12 $40 ]2

;===============================;
; Channel #1			;
;===============================;

#1 @1 v255 y10 o5 q6D
f4 d8. < a+16 g16 r16 a16 a+16^4 

/

@5 v255 y5 $DF o5 q48
r96 

(4)[a12. a24 r24 c24]2 
a+12. a+24 r24 d24 
a+12. a+24 r24 c+24 
(4)2
a+8 a+4.

[[ (4)2
a+12. a+24 r24 d24 
b12. b24 r24 d24 
(4)1
g+12. g+24 r24 c24 
g12. g24 r24 c24 
a+12. a+24 r24 c24

(4)2
a+12. a+24 r24 d24 
b12. b24 r24 d24 
a+12. a+24 r24 d24 
a+12. a+24 r24 c24 
(4)2 ]]2

[a+24 ^24 ^24 a+24 r24 d24 
a+24 ^24 ^24 a+24 r24 d24 
a24 ^24 ^24 a24 r24 c24
a24 r24 c24 a24 r24 c24 
g+24 ^24 ^24 g+24 r24 < b24 > 
g+24 ^24 ^24 g+24 r24 < b24 > 
g24 ^24 ^24 g24 r24 < a+24]
> g24 r24 c24 g24 r24 c24

*1
g24 r24 g24 c24 g24 c24

(4)8
r96 a+4. r=118 
(4)3
a24 ^24 ^24 a24 r24 c=6

@1 y10 $DE $23 $12 $40 q5E >
< d16 d16 > d16 r16 < a16 r8 g+16 r16 g16 r16 q6E f8 q5E d16 f16 g16
c16 c16 > d16 r16 < a16 r8 g+16 r16 g16 r16 q6E f8 q5E d16 f16 g16

;@1 $DE $23 $12 $40
< b16 b16 >> d16 r16 < a16 r8 g+16 r16 g16 r16 q6E f8 q5E d16 f16 g16
< a+16 a+16 >> d16 r16 < a16 r8 g+16 r16 g16 r16 q6E f8 q5E d16 f16 g16

;===============================;
; Channel #2			;
;===============================;

#2 @1 v255 y10 q6D
o3 a+4 f8. d16 c16 r16 d16 e16 ^4 

/

@4 y10 q4C
< f8 r8 d8 r8 g8 r8 c8 r8 f8 r8 d8 r8 g8 f+4.

q4B [[ f8 r8 a8 r8 a+8 r8 b8 r8 a8 r8 g+8 r8 g8 c8 d8 e8 
f8 r8 a8 r8 a+8 r8 b8 r8 > c8 < c8 e8 g8 f8 c8 f8 r8 ]]2

@8 y10 q4B
a+8 b8 > c8 d8 c8 < a8 f8 g8 g+8 b8 > d8 f8 g8 f8 e8 c8 <
a+8 a8 a+8 > d8 f8 e8 c8 < a8 b8 > d8 f8 < b8 a+8 > d8 c8 e8 <

@4
f8 r8 f8 r8 d+8 r8 d+8 r8 d8 r8 d8 r8 c+8 r8 c+8 r8 c8 r2^8 d8 e8 f8 r8 c8 r8 f8 r8 f8 r8

@8 q4C
a+8 a8 a+8 b8 > c8 c+8 d8 < a8 g8 a+8 a8 g8 f8 d8 c8 f8 
o2 a+8 a8 a+8 b8 > c8 c+8 d8 < a8 g8 a+8 a8 g8 f8 c8 f4

;===============================;
; Channel #3			;
;===============================;

#3 
@1 v255 y10,1,0 $EE $0A o6 q69
r32 d4 < a+8. f16 e16 r16 f16 g16 ^=42
$EE $00

/

r2 r2 r2 r2

@7 y10 o5 q6C

[[c8 < f8 r16 > f8 d16 c8 < f8 r16 > c8 < a+16
a16 a16 a+16 > c16 < f8 g8 a2
> c8 < f8 r16 > f8 d16 c8 < f8 r16 > c8 < a+16
a16 a16 a+16 > c16 < f8 g8 f2]]2

> [[d8 < g8 r16 > d+8 d16 d16 c16 c16 d16 c8 r8
c8 < f8 r16 > d8 c16 c16 < a+16 a+16 > c16 < a+8 r8]]2

> c8 < f8 r16 > f8 d16 c8 < f8 r16 > c8 < a+16
a16 a16 a+16 > c16 < f8 g8 a2
> c8 < f8 r16 > f8 d16 c8 < f8 r16 > c8 < a+16
a16 a16 a+16 c16 a+16 a16 g8 f2

@0 $DE $23 $12 $40 y10
q5F f8 f16 f16 r16 f16 r16 q6F e8 $DD $00 $0C f q5F d16 r16 q6F d4^16
q5F f8 f16 q2F f16 r16 q5F g16 r16 q7F g+8 g32 g+64 g64 q5F f16 q2F d16 q5F f16 q2F g16 r8

@0 o4
q5F f8 f16 q2F f16 r16 g16 r16 g+16 r16 q6F a16. r32 q5F > c16 r16 < a8.
> q5F d16 r16 d16 r16 q6F d16 < c16 a16 f2^16

;===============================;
; Channel #4			;
;===============================;

#4 @2 v255 y10,1,0 $EE $0A o6 q65
r32 d4 < a+8. f16 e16 r16 f16 g16 ^=42
$EE $00

/

[[r2]]52

;===============================;
; Channel #5			;
;===============================;

#5 $F4 $06

 @1 y2,1,0
$DE $00 $00 $00
q69
r32 o3 a+4 f8. d16 c16 r16 d16 e16 ^=42

/

>>

; $F4 $06

@12 v255 y10 q6F h0

(6)[
f16 a16 f16 c16 d16 ^16 c16 ^16 
c16 d16 f16 ^16 c16 d16 f16 ^16 
f16 a16 f16 c16 d16 ^16 c16 ^16 
c16 d16 f16 ^16 c16 ^16 ^16 ^16 
]5


; $18B6 / $4E32
[
f32 f32 a16 f16 c16 d16 ^16 c16 ^16 f16 d16 ^16 f16 d16 ^16 ^16 ^16 f32 f32 a16 f16 c16 d16 ^16 c16 ^16 f16 d16 ^16 f16 d16 ^16 ^16 ^16 
]2

(6)2

; $18BC / $4FD3
[
f32 f32 f32 ^32 f32 ^32 f32 ^32 f16 f16 d16 ^16 f16 f16 f8 d8 ^8 
]8

;===============================;
; Channel #6			;
;===============================;

#6
@1
y2,1,0
$DE $00 $00 $00
q69
r32 o5 f4 d8. < a+16 g16 r16 a16 a+16 ^=42 

/
q01
[r2 ]52

;===============================;
; Channel #7			;
;===============================;

#7 $EE $0A
@2 h0
y10
$DE $00 $00 $00
q67
o6 d4 < a+8. f16 e16 r16 f16 g16 ^4 

$EE $00

/


; $18AC / $4A8D
@5 h0
y15
$DE $00 $00 $00
q49
r192 o5 

(8)[f24 ^24 ^24 f24 r24 f24]3 
e24 ^24 ^24 e24 r24 e24 
(8)2
f8 e=72



[[
; $18AE / $4BB4
; warning: 1 ticks truncated;;;;;;;;;;;;;;;
(8)4
e24 ^24 ^24 e24 r24 e24 
d+24 ^24 ^24 d+24 r24 d+24 
d24 ^24 ^24 d24 r24 d24 
e24 ^24 ^24 e24 r24 e=8


; $18B0 / $4CEC

; warning: 1 ticks truncated;;;;;;;;;;;;;;;
(8)4
g24 ^24 ^24 g24 r24 g24 
e24 ^24 ^24 e24 r24 e24 
f24 ^24 ^24 f24 r24 f24 
f24 ^24 ^24 f24 r24 f24 ]]2




[[ (8)3
f24 r24 f24 f24 r24 f24
d24 ^24 ^24 d24 r24 d24 
d24 ^24 ^24 d24 r24 d24 
d24 ^24 ^24 d24 r24 d24 
e24 r24 e24 e24 r24 e24 ]]2



; $18BA / $5137
; warning: 1 ticks truncated;;;;;;;;;;;;;;;
(8)8
r192 g4. r=119 
(8)3
f24 ^24 ^24 f24 r24 f=7


; $18BC / $4F3F
; warning: 1 ticks truncated;;;;;;;;;;;;;;;
y10
q49 <
[
d24 ^24 ^24 f24 ^24 ^24 d24 r24 f24 f+24 ^24 g24 a24 r24 g+24 g24 ^24 f+24 a24 r24 d24 d+24 ^24 e24 f24 r24 r24 d24 ^24 ^24 f24 r24 g24 g+24 ^24 a24 g+24 r24 a24 f24 ^24 d24 c24 r24 f24 < a24 ^24 a+24 
]2
