#amk 2

#pad $01E5

#option TempoImmunity
#option NoLoop

#0 $F4 $02
@3 t74 o5v255 e32d32e32v0 t90 ^4^16^32@9 $ED $7F $F3   t37 o3v255 c+16 >c+32d+32f+16d+32c+32<a+16d+32g+32a+16g+16>v255 f+2^16^32


#1
r2@9 $ED $7F $F3 o3v200 g+32g+32g+16a+32g+32f+16<a+32>d+32f+16d+16 f+2^16^32


#2
r4^8^16@22 o3v255c16 @22  v128 c16@22  v157 c16@22  v186 c16@22 v255 c16@22  v157 c16@22 v255 c16@22  v128 c32@22  v157 c32@22 v255 c2^16^32

#3 v228
@14 $ED $6E $D3 o4 r4^8^16 f+16r16 f+16r16 f+32r32 $F4 $01 {r32g+32f+32}$F4 $01 d+32r16c+32f+2^16^32 r1 

#5 v228
@14 $ED $6E $D3 o4 r4^8^16 c+16r16 c+16r16 c+32r32<{r16.}       g+32r16g+32>c+2^16^32 r1 

#7 v255

@26 r4^8^16 c16 v170c32 v200c32 v255c16 c16 c16 v170c16 v255 c16 c32 c170c32 v255c2^16^32 r1                 