#SPC
{
	#author "Jimmy52905"
	#comment "Water castle theme"
	#game "SMW Central Production 2"
}

#samples
{
	#default
	#AMM
	#sky_and_dream
}

#0 w160 t58

$EF $FF $2F $2F 
$F1 $04 $A0 $00

#0 v230 y13
$DE $2E $06 $40
$EA $30

(10)[@01
     $ED $7B $E0
     o4
     g4 d+2.
     c4<g4{a+4>c4c+4}
     d1^1]2
[r1]4
(11)[@06
     $ED $7C $E0
     c4d4d+4g4
     g+8g8f16d+16d8c4d+4
     <b4>d2.
     {<g4b4>d4g+4g4}]1
{f8d+8}
(11)1
{d+8f8}
(12)[g8.>c=108d4
     d+8.c=108<g4
     f8.b=108>c4
     d8.<b=156]1
(13)[g8.>c8.d8d+8.c8.<g8
     f8.b8.>c8d8.]1
<b=60
(13)1
>f=60
(14)[@01
     $ED $7B $E0
     o4
     d+4f8r16g=108
     {g+4g4f4}d+4d4
     c4d8r16d+=108
     <b4>c8r16d=108]2
/
o4
(10)2
[r1]4
(11)1
{f8d+8}
(11)1
{d+8f8}
(12)1
(13)1
b=60
(13)1
>f=60
(14)2
[@00
 $ED $7D $E0
 o5
 c4d8r8d4d+8r16d+32f32
 g4f8r8f4d+8r8
 c4<b4>c4d8d+32d32d+=60
 d2.]2

#1 @08 v255 y10
$ED $4F $90

(20)[o2
     c8<g8a+8>c16d16d+8c8<g8a+8]2
(21)[b8g8b8b16>c+16d8<b8g8b8]2
(20)2
(21)2
(22)[o2
     c8<g8a+16>c16r=120
     d+8c8<g16>c16r=120
     <b8g8a+16b16r=120
     b8g8d16g16b8>d8<b8g8d8]1
(20)2
(21)2
(20)2
(21)2
(23)[o2
     c8<g8a+16>c16d+8g8d+8c8<g8
     >d+8c8<g16>c16d+8g8d+8c8<g8
     b8g8a+16b16>d8f8d8<b8g8
     b8g8d16g16b8>d8<b8g8d8]1
(24)[o2
     c8<g8a+16>c16d+8d+8c8<g16>c16d+8
     <b8g8a+16b16>d8<b8g8d16g16b8]2
(20)3
(21)1
(20)3
(21)1
/
(20)2
(21)2
(20)2
(21)2
(22)1
(20)2
(21)2
(20)2
(21)2
(23)1
(24)2
(20)3
(21)1
(20)3
(21)1
[r1]4
(23)1

#2 y08

(30)[v160
     @0
     $ED $6F $B4
     o3
     c8d+8g8>c8d+8c8<g8d+8]2
(31)[o2
     b8>d8f8g8b8g8f8d8]2
(30)2
(31)2
(32)[o4
     c8c16c=156
     d+8d+16d+=156
     <b8b16b=156
     >d8d16d=156]1
(30)2
(31)2
(30)2
(31)2
(32)1
(33)[c8c16c=60d+8d+16d+=60
     <b8b16b=60>d8d16d=60]2
(30)3
(31)1
(30)3
(31)1
/
(30)2
(31)2
(30)2
(31)2
(32)1
(30)2
(31)2
(30)2
(31)2
(32)1
(33)2
(30)3
(31)1
(30)3
(31)1
[v140
 @04
 $ED $7A $E0
 o2
 c1^1
 <b1^1]2

#3 y06

[r1]12
(40)[p0,0
     v140
     @01
     $ED $79 $E0]1
(41)[o4
     g1^1]4
(42)[o5
     c1
     <a+1
     g1^1]1
(43)[o5
     c2<a+2
     g1]2
(44)[v160
     @013
     $ED $6A $A0

     $DE $2E $06 $40
     $EA $30]1

o4
c1^1
<g1f1
(44)1
>c1^1
(40)1
(45)[v230
     $DE $2E $06 $40
     $EA $30
     o4
     d+4f8r16g=108
     d4d+8r16f=108]1
/
(44)1
(41)4
[r1]4
(40)1
(41)4
(42)1
(43)2
(44)1
o4
c1^1
<g1f1
(44)1
>c1^1
(40)1
(45)1
(46)[p0,0
     v140
     o4
     c1
     d+1
     d1
     f1]2

#7 y06

[r1]12
(40)1
(51)[o4
     d+1^1
     d1^1]2
(52)[o4
     g1^1
     d1^1]1
(53)[o4
     g1d1]2
(44)1
(50)[o3
     g1^1
     d+1
     d1]2
/
(44)1
(51)2
[r1]4
(40)1
(51)2
(52)1
(53)2
(44)1
(50)2
(40)1
(56)[v140
     o3
     g1
     >c1
     <b1
     >d1]2

#5 y06

[r1]12
(40)1
(61)[o4
     c1^1
     <b1^1]2
(62)[o4
     d+1^1
     <b1>b1]1
(63)[o4
     d+1
     <b2>b2]2
(44)1
(60)[o3
     d+1^1
     c1
     <b1]2
/
(44)1
(61)2
[r1]4
(40)1
(61)2
(62)1
(63)2
(44)1
(60)2
(40)1
(66)[v140
     o3
     d+1
     g1
     g1
     b1]2

#6 v255 y07

(70)[ @21 
     c8 @21c8
     @10
     o3c8
      @21 
     c16 @21c16 @21c8 @21c8
     @10
     o3c8
      @21 
     c8]8
(71)[ @21 
     c8 @21c8
     @10
     o3c8
      @21 
     c16 @21c16
     @0 $ED $6F $59 o4
     c8 $DD $00 $14 $8C <c8 $DD $00 $14 $80 >c8 $DD $00 $14 $8C <c8 $DD $00 $14 $80
      @21 
     c8  @21  c8
     @10
     o3c8
      @21 
     c16 @21c16
     @0 $ED $6F $59 o4
     c16 $DD $00 $14 $8C <f+16 $DD $00 $14 $86
     c8 $DD $00 $14 $80 f+8 $DD $00 $14 $86 c8 $DD $00 $14 $80]2
(70)8
(71)2
(72)[ @21 
     c8 @21c8
     @10
     o3c8
      @21 
     c16 @21c16
     @0 $ED $6F $59 o4
     c8 $DD $00 $14 $8C <c8 $DD $00 $14 $80 >c8 $DD $00 $14 $8C @10 o3c8
      @21 
     c8 @21c8
     @10
     o3c8
      @21 
     c16 @21c16]1
(73)[@0 $ED $6F $59 o4
     c16 $DD $00 $14 $8C <f+16 $DD $00 $14 $86
     c8 $DD $00 $14 $80 f+8 $DD $00 $14 $86 @10 o3c8]1
(72)1
(74)[ @21  c16]4
(75)[ @21  c32]8
(70)8
/
(70)8
(71)2
(70)8
(71)2
(72)1
(73)1
(72)1
(74)4
(75)8
(70)8
(76)[o3
      @21  c4 @21c4 @21c4 @10 c8  @21  c16 @21c16]2
(77)[ @21  c8 @21c8 @10 c4  @21  c4 @10 c8  @21  c16 @21c16
     @21c8 @21c16 @21c16 @10 c8  @21  c8 @21c8 @21c16 @21c16 @10 c8  @21  c8]1
(76)2
(77)1

#4

[r1]8
(80)[@0
     $ED $6F $B4
     v160 
     y08
     o3
     g8g16g=156
     a+8a+16a+=156
     g8g16g=156
     b8b16b=156]1
[r1]8
(80)1
(81)[o3
     g8g16g=60a+8a+16a+=60
     g8g16g=60]1 b8b16b=60
(81)1
(82)[@23
     v220
     y16
     o3
     c8 @23 c8 @23 c16 @23 c16 @23 c8]15
@23 v0c64 v220 $E8 $BC $00 [$ED $7E $E0 c64]63
/
[r1]8
(80)1
[r1]8
(80)1
(81)1 b8b16b=60
(81)1
(82)15
@23 v0c64 v220 $E8 $BC $00 [$ED $7E $E0 c64]63
[r1]4
[@23
 v220
 r8c8]16                

#amk=1
