A=00
B=01
C=02
D=03
E=04
F=05
G=06
H=07
I=08
J=09
K=0A
L=0B
M=0C
N=0D
O=0E
P=0F
Q=10
R=11
S=12
T=13
U=14
V=15
W=16
X=17
Y=18
Z=19
a=1A
b=1B
c=1C
d=1D
e=1E
f=1F
g=20
h=21
i=22
j=23
k=24
l=25
m=26
n=27
o=28
p=29
q=2A
r=2B
s=2C
t=2D
u=2E
v=2F
w=30
x=31
y=32
z=33
0=34
1=35
2=36
3=37
4=38
5=39
6=3A
7=3B
8=3C
9=3D
!=3E
?=3F
<=40
>=41
:=42
;=43
~=44
(=45
)=46
'=47
.=48
,=49
==4A
-=4B
+=4C
/=4D
*=4E
%=4F
_=50

*=52



 =ED